{
    "at_glw_cssOption.txt": {
        "global_cache": false,
        "version_id": 1010070,
        "version_string": "1.1.0",
        "hash": "51d454eb8db1e0e41e1511766371226e"
    },
    "at_glw_group_title.txt": {
        "global_cache": false,
        "version_id": 1020270,
        "version_string": "1.2.2",
        "hash": "d456bc3bcbf463e60e6d95c28d152437"
    },
    "at_glw_linknames.txt": {
        "global_cache": false,
        "version_id": 1000010,
        "version_string": "1.0.0 Alpha",
        "hash": "a5d3c52041548a9457f060cb4c01eaae"
    },
    "style_prop.at_glw_bannerWidth.txt": {
        "global_cache": false,
        "version_id": 1000070,
        "version_string": "1.0.0",
        "hash": "94bc85b3dafc9ea166312ee285134480"
    },
    "style_prop.at_glw_banner_css.txt": {
        "global_cache": false,
        "version_id": 1000070,
        "version_string": "1.0.0",
        "hash": "6ff29916f99fff9d2494d28e721ae77e"
    },
    "style_prop.at_glw_lable.txt": {
        "global_cache": false,
        "version_id": 1000010,
        "version_string": "1.0.0 Alpha",
        "hash": "8b87e5be27f03a0175238964e714a362"
    },
    "style_prop.at_glw_line.txt": {
        "global_cache": false,
        "version_id": 1000010,
        "version_string": "1.0.0 Alpha",
        "hash": "a5054184a3992fa381433e46ac3106cc"
    },
    "style_prop.at_glw_linecolore1.txt": {
        "global_cache": false,
        "version_id": 1000010,
        "version_string": "1.0.0 Alpha",
        "hash": "ad847b9651fadc16bf252840436c35e5"
    },
    "style_prop.at_glw_linecolore2.txt": {
        "global_cache": false,
        "version_id": 1000010,
        "version_string": "1.0.0 Alpha",
        "hash": "71b4fb4b19f9c6e373d26fb65654d7e8"
    },
    "style_prop.at_glw_linecolore3.txt": {
        "global_cache": false,
        "version_id": 1000010,
        "version_string": "1.0.0 Alpha",
        "hash": "91ee924618774cb12d26dee77f6003ac"
    },
    "style_prop.at_glw_lines.txt": {
        "global_cache": false,
        "version_id": 1000010,
        "version_string": "1.0.0 Alpha",
        "hash": "a0b0293a2db49f5f93c15a62e095c819"
    },
    "style_prop.at_glw_separator.txt": {
        "global_cache": false,
        "version_id": 1020270,
        "version_string": "1.2.2",
        "hash": "04b2e4188d4ef8051e4699da8af01335"
    },
    "style_prop.at_glw_vertical.txt": {
        "global_cache": false,
        "version_id": 1020270,
        "version_string": "1.2.2",
        "hash": "3243db2967c796072bd31dd1b6a36844"
    },
    "style_prop_desc.at_glw_bannerWidth.txt": {
        "global_cache": false,
        "version_id": 1000070,
        "version_string": "1.0.0",
        "hash": "d41d8cd98f00b204e9800998ecf8427e"
    },
    "style_prop_desc.at_glw_banner_css.txt": {
        "global_cache": false,
        "version_id": 1000070,
        "version_string": "1.0.0",
        "hash": "d41d8cd98f00b204e9800998ecf8427e"
    },
    "style_prop_desc.at_glw_lable.txt": {
        "global_cache": false,
        "version_id": 1000010,
        "version_string": "1.0.0 Alpha",
        "hash": "d41d8cd98f00b204e9800998ecf8427e"
    },
    "style_prop_desc.at_glw_line.txt": {
        "global_cache": false,
        "version_id": 1020071,
        "version_string": "1.2.0.1",
        "hash": "24758352694ceaf958ff849b61af1540"
    },
    "style_prop_desc.at_glw_linecolore1.txt": {
        "global_cache": false,
        "version_id": 1000010,
        "version_string": "1.0.0 Alpha",
        "hash": "d41d8cd98f00b204e9800998ecf8427e"
    },
    "style_prop_desc.at_glw_linecolore2.txt": {
        "global_cache": false,
        "version_id": 1000010,
        "version_string": "1.0.0 Alpha",
        "hash": "d41d8cd98f00b204e9800998ecf8427e"
    },
    "style_prop_desc.at_glw_linecolore3.txt": {
        "global_cache": false,
        "version_id": 1000010,
        "version_string": "1.0.0 Alpha",
        "hash": "d41d8cd98f00b204e9800998ecf8427e"
    },
    "style_prop_desc.at_glw_lines.txt": {
        "global_cache": false,
        "version_id": 1000010,
        "version_string": "1.0.0 Alpha",
        "hash": "d41d8cd98f00b204e9800998ecf8427e"
    },
    "style_prop_desc.at_glw_separator.txt": {
        "global_cache": false,
        "version_id": 1020071,
        "version_string": "1.2.0.1",
        "hash": "becdd407ec963174e3e2359ba3141fb9"
    },
    "style_prop_desc.at_glw_vertical.txt": {
        "global_cache": false,
        "version_id": 1020270,
        "version_string": "1.2.2",
        "hash": "9df3aa2deef1c7b296ac5fb4ff4adcea"
    },
    "style_prop_group.at_glw_styleProperty.txt": {
        "global_cache": false,
        "version_id": 1000010,
        "version_string": "1.0.0 Alpha",
        "hash": "5640c1096552ac9b13e3a90860b77e90"
    },
    "style_prop_group_desc.at_glw_styleProperty.txt": {
        "global_cache": false,
        "version_id": 1000010,
        "version_string": "1.0.0 Alpha",
        "hash": "d41d8cd98f00b204e9800998ecf8427e"
    },
    "usergroup_at_glw_groupselect_label.txt": {
        "global_cache": false,
        "version_id": 1020270,
        "version_string": "1.2.2",
        "hash": "4d5635bbfd4277c4662af4410cac9cfe"
    },
    "usergroup_at_glw_groupselect_text.txt": {
        "global_cache": false,
        "version_id": 1020270,
        "version_string": "1.2.2",
        "hash": "802554e442317fd88ede4bf206017281"
    },
    "widget_def.at_glw_widget.txt": {
        "global_cache": false,
        "version_id": 1020270,
        "version_string": "1.2.2",
        "hash": "297894e6bb1f400f4e2ae9f8685facb4"
    },
    "widget_def_desc.at_glw_widget.txt": {
        "global_cache": false,
        "version_id": 1000010,
        "version_string": "1.0.0 Alpha",
        "hash": "d41d8cd98f00b204e9800998ecf8427e"
    }
}